Análise e visualização de dados em Fitopatologia - FIP 606 - aula2
…
aula2

1 Importar arquivos

Arquivos do tipo excel são carregados usando funções específicas de pacotes disponíveis é o readxl

# Dados em excel

library(readxl)
meudado <- read_excel("dados_diversos.xlsx", "coffee rust")

meudado

# A tibble: 405 × 13
    farm region zone       district      lon   lat altitude cultivar shade    
   <dbl> <chr>  <chr>      <chr>       <dbl> <dbl>    <dbl> <chr>    <chr>    
 1     1 SNNPR  Bench Maji Debub Bench  35.4  6.90     1100 Local    Sun      
 2     2 SNNPR  Bench Maji Debub Bench  35.4  6.90     1342 Mixture  Mid shade
 3     3 SNNPR  Bench Maji Debub Bench  35.4  6.90     1434 Mixture  Mid shade
 4     4 SNNPR  Bench Maji Debub Bench  35.4  6.90     1100 Local    Sun      
 5     5 SNNPR  Bench Maji Debub Bench  35.4  6.90     1400 Local    Sun      
 6     6 SNNPR  Bench Maji Debub Bench  35.4  6.90     1342 Mixture  Mid shade
 7     7 SNNPR  Bench Maji Debub Bench  35.4  6.90     1432 Mixture  Mid shade
 8     8 SNNPR  Bench Maji Debub Bench  35.4  6.90     1100 Local    Sun      
 9     9 SNNPR  Bench Maji Debub Bench  35.4  6.89     1400 Local    Sun      
10    10 SNNPR  Bench Maji Debub Bench  35.4  6.88     1342 Mixture  Mid shade
# ℹ 395 more rows
# ℹ 4 more variables: cropping_system <chr>, farm_management <chr>, inc <dbl>,
#   sev2 <dbl>
…
meucsv <- read_csv("experimento.csv")

Rows: 192 Columns: 7
── Column specification ────────────────────────────────────────────────────────
Delimiter: ","
chr (3): location, cultivar, treatment
dbl (4): year, block, severity, yield_kg_ha

ℹ Use `spec()` to retrieve the full column specification for this data.
ℹ Specify the column types or set `show_col_types = FALSE` to quiet this message.

meucsv

# A tibble: 192 × 7
    year location cultivar block treatment severity yield_kg_ha
   <dbl> <chr>    <chr>    <dbl> <chr>        <dbl>       <dbl>
 1  2021 Vicosa   A            1 Control       41.1        3450
 2  2021 Vicosa   A            1 Fungicide     20.4        3739
 3  2021 Vicosa   A            2 Control       45.7        3607
 4  2021 Vicosa   A            2 Fungicide     16.2        4099
 5  2021 Vicosa   A            3 Control       40.2        3528
 6  2021 Vicosa   A            3 Fungicide     15.5        3909
 7  2021 Vicosa   A            4 Control       32.1        3652
 8  2021 Vicosa   A            4 Fungicide     15.1        3937
 9  2021 Vicosa   B            1 Control       29          3689
10  2021 Vicosa   B            1 Fungicide     12.8        4067
# ℹ 182 more rows

# Dados em nuvem google

library(gsheet)
meudadonuvem <- gsheet2tbl("https://docs.google.com/spreadsheets/d/1bq2N19DcZdtax2fQW9OHSGMR0X2__Z9T/edit?pli=1&gid=1110310360#gid=1110310360")

meudadonuvem

# A tibble: 30 × 3
   trat            t   sev
   <chr>       <dbl> <dbl>
 1 Gotejamento     0   1.1
 2 Gotejamento     7   3.7
 3 Gotejamento    14  10.7
 4 Gotejamento    21  11.6
 5 Gotejamento    28  15.3
 6 Gotejamento    35  18.1
 7 Gotejamento    42  32.4
 8 Gotejamento    49  35.4
 9 Gotejamento    56  41.9
10 Gotejamento    63  43.4
# ℹ 20 more rows

 # Aba curve
curve <- gsheet2tbl("https://docs.google.com/spreadsheets/d/1bq2N19DcZdtax2fQW9OHSGMR0X2__Z9T/edit?pli=1&gid=1807247585#gid=1807247585")

curve

# A tibble: 60 × 4
   Irrigation   rep   day severity
   <chr>      <dbl> <dbl>    <dbl>
 1 Furrow         1     0     0.01
 2 Furrow         2     0     0.01
 3 Furrow         3     0     0.01
 4 Furrow         1     7     0.04
 5 Furrow         2     7     0.04
 6 Furrow         3     7     0.04
 7 Furrow         1    14     0.1 
 8 Furrow         2    14     0.1 
 9 Furrow         3    14     0.11
10 Furrow         1    21     0.11
# ℹ 50 more rows
…
3 Seleção de colunas e filtragem de linhas

Assess <- software |>
  select(crop, rep, Assess)
Assess

# A tibble: 70 × 3
   crop    rep Assess
   <chr> <dbl>  <dbl>
 1 Rosa     21  20.0 
 2 Rosa     22   4.77
 3 Rosa     23  72.1 
 4 Rosa     24  81.4 
 5 Rosa     25  25.8 
 6 Rosa     26  80.4 
 7 Rosa     27  81.7 
 8 Rosa     28   7.02
 9 Rosa     29  11.2 
10 Rosa     30  79.1 
# ℹ 60 more rows

Assess2 <- dados_longo |>
  filter(software == "Assess")
Assess2

# A tibble: 70 × 4
   crop    rep software severidade
   <chr> <dbl> <chr>         <dbl>
 1 Rosa     21 Assess        20.0 
 2 Rosa     22 Assess         4.77
 3 Rosa     23 Assess        72.1 
 4 Rosa     24 Assess        81.4 
 5 Rosa     25 Assess        25.8 
 6 Rosa     26 Assess        80.4 
 7 Rosa     27 Assess        81.7 
 8 Rosa     28 Assess         7.02
 9 Rosa     29 Assess        11.2 
10 Rosa     30 Assess        79.1 
# ℹ 60 more rows

ImageJ <- dados_longo |>
  filter(software == "ImageJ")
ImageJ

# A tibble: 70 × 4
   crop    rep software severidade
   <chr> <dbl> <chr>         <dbl>
 1 Rosa     21 ImageJ        26.0 
 2 Rosa     22 ImageJ         5.16
 3 Rosa     23 ImageJ        69.5 
 4 Rosa     24 ImageJ        82.7 
 5 Rosa     25 ImageJ        13.1 
 6 Rosa     26 ImageJ        69.9 
 7 Rosa     27 ImageJ        88.7 
 8 Rosa     28 ImageJ         6.4 
 9 Rosa     29 ImageJ        10.8 
10 Rosa     30 ImageJ        78.2 
# ℹ 60 more rows

LeafDoctor <- dados_longo |>
  filter(software == "LeafDoctor")
LeafDoctor

# A tibble: 70 × 4
   crop    rep software   severidade
   <chr> <dbl> <chr>           <dbl>
 1 Rosa     21 LeafDoctor       31.6
 2 Rosa     22 LeafDoctor       13.5
 3 Rosa     23 LeafDoctor       77.6
 4 Rosa     24 LeafDoctor       90.8
 5 Rosa     25 LeafDoctor       24.5
 6 Rosa     26 LeafDoctor       73.8
 7 Rosa     27 LeafDoctor       86.8
 8 Rosa     28 LeafDoctor       14.0
 9 Rosa     29 LeafDoctor       16.0
10 Rosa     30 LeafDoctor       77.0
# ℹ 60 more rows
…
