Análise e visualização de dados em Fitopatologia - FIP 606 - aula4
…
library(readxl)

dados <- read_excel("dados_diversos.xlsx", "curve")
dados

# A tibble: 60 × 4
   Irrigation   rep   day severity
   <chr>      <dbl> <dbl>    <dbl>
 1 Furrow         1     0    0.01 
 2 Furrow         2     0    0.01 
 3 Furrow         3     0    0.01 
 4 Furrow         1     7    0.036
 5 Furrow         2     7    0.036
 6 Furrow         3     7    0.04 
 7 Furrow         1    14    0.097
 8 Furrow         2    14    0.097
 9 Furrow         3    14    0.114
10 Furrow         1    21    0.114
# ℹ 50 more rows
…
